…
\[The following code is not correct, needs a bit of work\]

``` r
dums <-
  x %>%
  mutate(wday = lubridate::wday(time)) %>%
  mutate(month = lubridate::month(time)) %>%
  select(time, wday, month) %>%
  fastDummies::dummy_cols("wday", remove_first_dummy = TRUE, remove_selected_columns = TRUE) %>%
  fastDummies::dummy_cols("month", remove_first_dummy = TRUE, remove_selected_columns = TRUE)

dums
```

    ## # A tibble: 2,524 x 16
    ##    time       wday_3 wday_4 wday_5 wday_6 month_10 month_11 month_12 month_2
    ##    <date>      <int>  <int>  <int>  <int>    <int>    <int>    <int>   <int>
    ##  1 2005-01-03      0      0      0      0        0        0        0       0
    ##  2 2005-01-04      1      0      0      0        0        0        0       0
    ##  3 2005-01-05      0      1      0      0        0        0        0       0
    ##  4 2005-01-06      0      0      1      0        0        0        0       0
    ##  5 2005-01-07      0      0      0      1        0        0        0       0
    ##  6 2005-01-10      0      0      0      0        0        0        0       0
    ##  7 2005-01-11      1      0      0      0        0        0        0       0
    ##  8 2005-01-12      0      1      0      0        0        0        0       0
    ##  9 2005-01-13      0      0      1      0        0        0        0       0
    ## 10 2005-01-14      0      0      0      1        0        0        0       0
    ## # … with 2,514 more rows, and 7 more variables: month_3 <int>, month_4 <int>,
    ## #   month_5 <int>, month_6 <int>, month_7 <int>, month_8 <int>, month_9 <int>
…
